<svg width="16" height="16" version="1.1" viewBox="0 0 16 16" xmlns="http://www.w3.org/2000/svg">
 <path d="m2 4v5h2v-5zm-1 7c0 1.1046.89543 2 2 2h10c1.1046 0 2-.89543 2-2h-2-10z" fill="#a5efac"/>
 <g fill="#a5efac" aria-label="Rx">
  <path d="m7.664 1q1.168 0 1.72 0.424 0.56 0.424 0.56 1.288 0 0.392-0.152 0.688-0.144 0.288-0.392 0.496-0.24 0.2-0.52 0.328l1.68 2.488h-1.344l-1.36-2.192h-0.648v2.192h-1.208v-5.712zm-0.088 0.992h-0.368v1.544h0.392q0.6 0 0.856-0.2 0.264-0.2 0.264-0.592 0-0.408-0.28-0.576-0.28-0.176-0.864-0.176z"/>
  <path d="m12.081 4.48-1.408-2.136h1.352l0.848 1.392 0.856-1.392h1.352l-1.424 2.136 1.488 2.232h-1.352l-0.92-1.496-0.92 1.496h-1.352z"/>
 </g>
</svg>
